<?xml version="1.0" encoding="UTF-8" standalone="no"?>
<!-- Created with Inkscape (http://www.inkscape.org/) -->

<svg
   width="128"
   height="128"
   viewBox="0 0 33.866666 33.866666"
   version="1.1"
   id="svg5"
   xmlns="http://www.w3.org/2000/svg"
   xmlns:svg="http://www.w3.org/2000/svg">
  <defs
     id="defs2" />
  <g
     id="layer1">
    <path
       style="font-variation-settings:normal;vector-effect:none;fill:#bf4080;fill-opacity:1;stroke:none;stroke-width:2.11666px;stroke-linecap:butt;stroke-linejoin:miter;stroke-miterlimit:4;stroke-dasharray:none;stroke-dashoffset:0;stroke-opacity:1;-inkscape-stroke:none;stop-color:#000000"
       d="M 0,0 H 33.866666 V 33.866666 H 0 Z"
       id="path1540" />
    <path
       style="font-variation-settings:normal;vector-effect:none;fill:#ac3973;fill-opacity:1;stroke:none;stroke-width:0.560032px;stroke-linecap:butt;stroke-linejoin:miter;stroke-miterlimit:4;stroke-dasharray:none;stroke-dashoffset:0;stroke-opacity:1;-inkscape-stroke:none;stop-color:#000000"
       d="M 9.525,0 H 0 v 33.866665 z"
       id="path889" />
    <path
       style="font-variation-settings:normal;vector-effect:none;fill:#c6538c;fill-opacity:1;stroke:none;stroke-width:0.560032px;stroke-linecap:butt;stroke-linejoin:miter;stroke-miterlimit:4;stroke-dasharray:none;stroke-dashoffset:0;stroke-opacity:1;-inkscape-stroke:none;stop-color:#000000"
       d="m 24.341666,33.866665 h 9.524999 V 0 Z"
       id="path1255" />
    <circle
       style="fill:none;fill-opacity:1;stroke:#ffffff;stroke-width:3.175;stroke-linecap:square;stroke-dasharray:none;stroke-opacity:1"
       id="path3"
       cx="16.933332"
       cy="16.933332"
       r="4.2333331" />
    <path
       style="fill:none;fill-opacity:1;stroke:#ffffff;stroke-width:3.175;stroke-linecap:square;stroke-dasharray:none;stroke-opacity:1"
       d="m 21.166666,14.816666 4.233332,-2.116667 v -6.35"
       id="path5" />
    <path
       style="fill:none;fill-opacity:1;stroke:#ffffff;stroke-width:3.175;stroke-linecap:square;stroke-dasharray:none;stroke-opacity:1"
       d="m 13.146924,15.040128 -4.6802576,-2.340129 8e-7,-6.35"
       id="path6" />
    <path
       style="fill:none;fill-opacity:1;stroke:#ffffff;stroke-width:3.175;stroke-linecap:square;stroke-dasharray:none;stroke-opacity:1"
       d="m 16.933333,21.166666 v 6.35"
       id="path7" />
    <path
       style="fill:none;fill-opacity:1;stroke:#ffffff;stroke-width:3.175;stroke-linecap:square;stroke-dasharray:none;stroke-opacity:1"
       d="M 16.933333,12.7 V 6.3499997"
       id="path8" />
  </g>
</svg>
