<?xml version="1.0" encoding="UTF-8" standalone="no"?>
<!-- Created with Inkscape (http://www.inkscape.org/) -->

<svg
   width="128"
   height="128"
   viewBox="0 0 33.866666 33.866666"
   version="1.1"
   id="svg5"
   inkscape:version="1.3.2 (091e20ef0f, 2023-11-25, custom)"
   sodipodi:docname="128.svg"
   xmlns:inkscape="http://www.inkscape.org/namespaces/inkscape"
   xmlns:sodipodi="http://sodipodi.sourceforge.net/DTD/sodipodi-0.dtd"
   xmlns="http://www.w3.org/2000/svg"
   xmlns:svg="http://www.w3.org/2000/svg">
  <sodipodi:namedview
     id="namedview7"
     pagecolor="#ffffff"
     bordercolor="#000000"
     borderopacity="1"
     inkscape:pageshadow="0"
     inkscape:pageopacity="1"
     inkscape:pagecheckerboard="false"
     inkscape:document-units="px"
     showgrid="false"
     width="16px"
     units="px"
     inkscape:zoom="3.8693743"
     inkscape:cx="31.271206"
     inkscape:cy="24.164114"
     inkscape:window-width="1920"
     inkscape:window-height="1003"
     inkscape:window-x="0"
     inkscape:window-y="40"
     inkscape:window-maximized="1"
     inkscape:current-layer="layer1"
     showborder="false"
     inkscape:showpageshadow="true"
     inkscape:deskcolor="#d1d1d1">
    <inkscape:grid
       type="xygrid"
       id="grid824"
       spacingx="0.26458332"
       spacingy="0.26458332"
       originx="0"
       originy="0"
       units="px"
       visible="false" />
  </sodipodi:namedview>
  <defs
     id="defs2" />
  <g
     inkscape:label="Layer 1"
     inkscape:groupmode="layer"
     id="layer1">
    <path
       style="font-variation-settings:normal;vector-effect:none;fill:#bf4080;fill-opacity:1;stroke:none;stroke-width:2.11666px;stroke-linecap:butt;stroke-linejoin:miter;stroke-miterlimit:4;stroke-dasharray:none;stroke-dashoffset:0;stroke-opacity:1;-inkscape-stroke:none;stop-color:#000000"
       d="M 0,0 H 33.866666 V 33.866666 H 0 Z"
       id="path1540" />
    <path
       style="font-variation-settings:normal;vector-effect:none;fill:#ac3973;fill-opacity:1;stroke:none;stroke-width:0.560032px;stroke-linecap:butt;stroke-linejoin:miter;stroke-miterlimit:4;stroke-dasharray:none;stroke-dashoffset:0;stroke-opacity:1;-inkscape-stroke:none;stop-color:#000000"
       d="M 9.525,0 H 0 v 33.866665 z"
       id="path889"
       sodipodi:nodetypes="cccc" />
    <path
       style="font-variation-settings:normal;vector-effect:none;fill:#c6538c;fill-opacity:1;stroke:none;stroke-width:0.560032px;stroke-linecap:butt;stroke-linejoin:miter;stroke-miterlimit:4;stroke-dasharray:none;stroke-dashoffset:0;stroke-opacity:1;-inkscape-stroke:none;stop-color:#000000"
       d="m 24.341666,33.866665 h 9.524999 V 0 Z"
       id="path1255"
       sodipodi:nodetypes="cccc" />
    <circle
       style="fill:none;fill-opacity:1;stroke:#ffffff;stroke-width:3.175;stroke-linecap:square;stroke-dasharray:none;stroke-opacity:1"
       id="path3"
       cx="16.933332"
       cy="16.933332"
       r="4.2333331" />
    <path
       style="fill:none;fill-opacity:1;stroke:#ffffff;stroke-width:3.175;stroke-linecap:square;stroke-dasharray:none;stroke-opacity:1"
       d="m 21.166666,14.816666 4.233332,-2.116667 v -6.35"
       id="path5"
       sodipodi:nodetypes="ccc" />
    <path
       style="fill:none;fill-opacity:1;stroke:#ffffff;stroke-width:3.175;stroke-linecap:square;stroke-dasharray:none;stroke-opacity:1"
       d="m 13.146924,15.040128 -4.6802576,-2.340129 8e-7,-6.35"
       id="path6"
       sodipodi:nodetypes="ccc" />
    <path
       style="fill:none;fill-opacity:1;stroke:#ffffff;stroke-width:3.175;stroke-linecap:square;stroke-dasharray:none;stroke-opacity:1"
       d="m 16.933333,21.166666 v 6.35"
       id="path7"
       sodipodi:nodetypes="cc" />
    <path
       style="fill:none;fill-opacity:1;stroke:#ffffff;stroke-width:3.175;stroke-linecap:square;stroke-dasharray:none;stroke-opacity:1"
       d="M 16.933333,12.7 V 6.3499997"
       id="path8" />
  </g>
</svg>
